<svg version="1.1" id="master-artboard" xmlns="http://www.w3.org/2000/svg" xmlns:xlink="http://www.w3.org/1999/xlink" x="0px"
	 y="0px" viewBox="0 0 286.8 313.4" style="enable-background:new 0 0 286.8 313.4;" xml:space="preserve">
<style type="text/css">
	.st0{fill:#1A1A1A;}
</style>
<g transform="matrix(1, 0, 0, 1, -2.842170943040401e-14, -1.4210854715202004e-14)">
	<g>
		<path class="st0" d="M117.8,186.1c3.5,12.3,15.9,20.1,22,23.3v24.7l-10.3,4.6c-11.8,5.3-25.4,5.6-37.4,0.9c-1.8-0.7-3.8,0.2-4.5,2
			s0.2,3.8,2,4.5c6.5,2.6,13.3,3.8,20.2,3.8c7.7,0,15.5-1.6,22.6-4.8l11-4.9v-29.1v-8.2v-24C126.8,178.8,117.8,186.1,117.8,186.1z"
			/>
		<path class="st0" d="M74.4,220.9c0-11.5,4.9-30.9,30.4-45.7c25.5-14.8,26.5-49.6,26.5-72.6c0-19.3-4.4-46.5-25.8-59.6
			c-2.6,0.8-5.1,1.7-7.6,2.6C74.8,26,38.4,7.1,0.3,0c-2,39.5,4.8,88.9,26.8,118.4C9.2,154.6,4.3,201.6,4.3,210
			c7.3-10,14.7-14,14.7-14c-0.7,54.7,46.6,102.7,46.6,102.7l2-16.7c14.7,18,42,31.3,42,31.3l-3.3-21.2c8,6.6,26.7,7.2,37,7.2v-14
			C67.7,285.4,74.4,232.4,74.4,220.9z M93.3,135.1c6.6,0,12,5.4,12,12s-5.4,12-12,12s-12-5.4-12-12
			C81.3,140.4,86.7,135.1,93.3,135.1z M39,84.1l18.8-2.2C47.8,87.7,39.6,97,32.9,108C23.4,88.3,15.5,56.2,15,27.4
			c23.3,6.7,44.6,17.5,60.8,28.7C52.8,69.1,39,84.1,39,84.1z"/>
	</g>
	<g>
		<path class="st0" d="M168.8,186.1c-3.5,12.3-15.9,20.1-22,23.3v24.7l10.3,4.6c11.8,5.3,25.4,5.6,37.4,0.9c1.8-0.7,3.8,0.2,4.5,2
			s-0.2,3.8-2,4.5c-6.5,2.6-13.3,3.8-20.2,3.8c-7.7,0-15.5-1.6-22.6-4.8l-11-4.9v-29.1v-8.2v-24
			C159.8,178.8,168.8,186.1,168.8,186.1z"/>
		<path class="st0" d="M143.3,285.4v14c10.3,0,29-0.7,37-7.2l-3.3,21.2c0,0,27.3-13.3,42-31.3l2,16.7c0,0,47.3-48,46.7-102.7
			c0,0,7.3,4,14.7,14c0-8.4-4.9-55.4-22.8-91.6c22-29.5,28.8-78.9,26.8-118.4c-38.1,7.1-74.5,26-97.6,45.6c-2.5-0.9-5-1.8-7.6-2.6
			c-21.6,13.1-26,40.4-26,59.6c0,23,1,57.8,26.5,72.6c25.5,14.8,30.4,34.2,30.4,45.7S218.9,285.4,143.3,285.4z M205.3,147.1
			c0,6.6-5.4,12-12,12s-12-5.4-12-12s5.4-12,12-12S205.3,140.4,205.3,147.1z M210.8,56.1c16.3-11.2,37.5-22,60.8-28.7
			c-0.5,28.7-8.5,60.9-17.9,80.6c-6.7-11-14.9-20.2-24.9-26.1l18.8,2.2C247.6,84.1,233.8,69.1,210.8,56.1z"/>
	</g>
</g>
</svg>
